{
	"info": {
		"_postman_id": "87441f80-1180-4202-a9f6-d9cc62f4d8b3",
		"name": "ITERATIONS",
		"schema": "https://schema.getpostman.com/json/collection/v2.1.0/collection.json",
		"_exporter_id": "29395349"
	},
	"item": [
		{
			"name": "POST",
			"event": [
				{
					"listen": "test",
					"script": {
						"exec": [
							"//Fetch the collection variables into lacal variables\r",
							"var loc_start = pm.collectionVariables.get(\"coll_start\");\r",
							"var loc_end = pm.collectionVariables.get(\"coll_end\");\r",
							"\r",
							"//Fetch the stats code from response\r",
							"var st_code = pm.response.code;\r",
							"\r",
							"//Compare the status code upto 5th Iteration i.e from 0,1,2,3,4. if not getting the required status 200 or 201 etc. then API should execute 5 times.\r",
							"//If status code is not equal to 200 status and if the value of start is less than the end value then set collection variables as (loc_start+1) and execute the request. This loop will be executed till the start value incremented at 4. Once it is become 5 our nested if condition is failed and move to else part where we are setting request as null means stopping the execution and setting start value as 0. Our iteration execution end there.\r",
							"for(i=loc_start;i<loc_end;i++)\r",
							"{\r",
							" if(st_code != 200)\r",
							"    {\r",
							"        if(loc_start<eval(loc_end-1))\r",
							"        {\r",
							"            pm.collectionVariables.set(\"coll_start\",eval(loc_start+1));\r",
							"            postman.setNextRequest(\"POST\");\r",
							"        }\r",
							"        else\r",
							"        {\r",
							"            postman.setNextRequest(null);\r",
							"            pm.collectionVariables.set(\"coll_start\",0);\r",
							"\r",
							"            pm.test(\"Status code is 201\", function(){\r",
							"                pm.response.to.have.status(200);\r",
							"            });\r",
							"        }\r",
							"    }\r",
							"    //in case if condition not fullfilled then execution will finish here.\r",
							"    else\r",
							"    {\r",
							"        //step 2 declare expected results\r",
							"//step 2.1 declare expected date\r",
							"//var actualDate= new Date().toJSON().slice(0,11);\r",
							"var actualDate= new Date().toISOString().slice(0,10);\r",
							"//step 2.2 fetch request parameters from request body\r",
							"var requestBody=pm.request.body.raw;\r",
							"requestBody=JSON.parse(requestBody);\r",
							"var req_name=requestBody.name;\r",
							"var req_job=requestBody.job;\r",
							"\r",
							"//step 3 validate response body\r",
							"//step 3.1 extract response body\r",
							"var responseBody=pm.response.json();\r",
							"\r",
							"//step 3.2 extract response body for each name\r",
							"var res_name=responseBody.name;\r",
							"var res_job=responseBody.job;\r",
							"var res_id=responseBody.id;\r",
							"var res_date=responseBody.createdAt;\r",
							"res_date=res_date.slice(0,10);\r",
							" console.log(res_name);\r",
							" console.log(res_job);\r",
							" console.log(res_date);\r",
							" \r",
							"// step 3.3 validate respons body\r",
							"pm.test(\"validate responseBody:name\",function ()\r",
							"{\r",
							"    pm.expect(res_name).to.eql(req_name)\r",
							"})\r",
							"pm.test(\"Validate responseBody:job\",function () {\r",
							"    pm.expect(res_job).to.eql(req_job)\r",
							"})\r",
							"pm.test(\"validate responseBody:id\", function()\r",
							"{\r",
							"    pm.expect(res_id).to.not.null;\r",
							"    pm.expect(res_id).to.not.eql(0);\r",
							"})\r",
							"pm.test(\"validate responseBody:date\",function()\r",
							"{\r",
							"    pm.expect(res_date).to.eql(actualDate);\r",
							"})\r",
							"\r",
							"        break;\r",
							"    }\r",
							"}"
						],
						"type": "text/javascript"
					}
				}
			],
			"request": {
				"method": "POST",
				"header": [],
				"body": {
					"mode": "raw",
					"raw": "{\r\n    \"name\": \"morpheus\",\r\n    \"job\": \"leader\"\r\n}",
					"options": {
						"raw": {
							"language": "json"
						}
					}
				},
				"url": {
					"raw": "https://reqres.in/api/users",
					"protocol": "https",
					"host": [
						"reqres",
						"in"
					],
					"path": [
						"api",
						"users"
					]
				}
			},
			"response": []
		},
		{
			"name": "GET",
			"event": [
				{
					"listen": "test",
					"script": {
						"exec": [
							"//Fetch the collection variables into lacal variables\r",
							"var loc_start = pm.collectionVariables.get(\"coll_start\");\r",
							"var loc_end = pm.collectionVariables.get(\"coll_end\");\r",
							"\r",
							"//Fetch the stats code from response\r",
							"var st_code = pm.response.code;\r",
							"\r",
							"//Compare the status code upto 5th Iteration i.e from 0,1,2,3,4. if not getting the required status 200 or 201 etc. then API should execute 5 times.\r",
							"//If status code is not equal to 200 status and if the value of start is less than the end value then set collection variables as (loc_start+1) and execute the request. This loop will be executed till the start value incremented at 4. Once it is become 5 our nested if condition is failed and move to else part where we are setting request as null means stopping the execution and setting start value as 0. Our iteration execution end there.\r",
							"for(i=loc_start;i<loc_end;i++)\r",
							"{\r",
							" if(st_code != 201)\r",
							"    {\r",
							"        if(loc_start<eval(loc_end-1))\r",
							"        {\r",
							"            pm.collectionVariables.set(\"coll_start\",eval(loc_start+1));\r",
							"            postman.setNextRequest(\"GET\");\r",
							"        }\r",
							"        else\r",
							"        {\r",
							"            postman.setNextRequest(null);\r",
							"            pm.collectionVariables.set(\"coll_start\",0);\r",
							"\r",
							"            pm.test(\"Status code is 201\", function(){\r",
							"                pm.response.to.have.status(201);\r",
							"            });\r",
							"        }\r",
							"    }\r",
							"    //in case if condition not fullfilled then execution will finish here.\r",
							"    else\r",
							"    {\r",
							"       // declare expected results\r",
							"// declare expected result array for response parameters\r",
							"const id =[1,2,3,4,5,6];\r",
							"const email =[\"george.bluth@reqres.in\",\"janet.weaver@reqres.in\", \"emma.wong@reqres.in\", \"eve.holt@reqres.in\", \"charles.morris@reqres.in\",\"tracey.ramos@reqres.in\"];\r",
							"const f_name =[\"George\",\"Janet\",\"Emma\",\"Eve\",\"Charles\",\"Tracey\"];\r",
							"const l_name =[\"Bluth\",\"Weaver\",\"Wong\", \"Holt\",\"Morris\",\"Ramos\"];\r",
							"\r",
							"// step 3 validate responsebody \r",
							"//step 3.1 extract responsebody\r",
							"var responseBody=pm.response.json();\r",
							"var dataArray=responseBody.data;\r",
							"var count=Object.keys(dataArray).length;\r",
							"\r",
							"// step 3.2 extract responsebody for each name\r",
							"for (i=0; i<count; i++)\r",
							"{\r",
							"var exp_id= id[i];\r",
							"var exp_email= email[i];\r",
							"var exp_f_name= f_name[i];\r",
							"var exp_l_name= l_name[i];\r",
							"\r",
							"var res_id= responseBody.data[i].id;\r",
							"var res_email= responseBody.data[i].email;\r",
							"var res_f_name= responseBody.data[i].first_name;\r",
							"var res_l_name= responseBody.data[i].last_name;\r",
							"\r",
							"// step 3.3 validate response body\r",
							"pm.test(\"validate id at index \" +i ,\r",
							"function()\r",
							"{\r",
							"pm.expect(res_id).to.eqls(exp_id);\r",
							"})\r",
							"pm.test(\"validate email at index \" +i ,\r",
							"function()\r",
							"{\r",
							"pm.expect(res_email).to.eqls(exp_email);\r",
							"})\r",
							"pm.test(\"validate first name at index \" +i ,\r",
							"function()\r",
							"{\r",
							"pm.expect(res_f_name).to.eqls(exp_f_name)\r",
							"})\r",
							"pm.test(\"validate last name at index \" +i ,\r",
							"function()\r",
							"{\r",
							"pm.expect(res_l_name).to.eqls(exp_l_name)\r",
							"})\r",
							"}\r",
							"\r",
							"        break;\r",
							"    }\r",
							"}"
						],
						"type": "text/javascript"
					}
				}
			],
			"request": {
				"method": "GET",
				"header": [],
				"url": {
					"raw": "https://reqres.in/api/users?page=2",
					"protocol": "https",
					"host": [
						"reqres",
						"in"
					],
					"path": [
						"api",
						"users"
					],
					"query": [
						{
							"key": "page",
							"value": "2"
						}
					]
				}
			},
			"response": []
		},
		{
			"name": "PUT",
			"event": [
				{
					"listen": "test",
					"script": {
						"exec": [
							"//Fetch the collection variables into lacal variables\r",
							"var loc_start = pm.collectionVariables.get(\"coll_start\");\r",
							"var loc_end = pm.collectionVariables.get(\"coll_end\");\r",
							"\r",
							"//Fetch the stats code from response\r",
							"var st_code = pm.response.code;\r",
							"\r",
							"//Compare the status code upto 5th Iteration i.e from 0,1,2,3,4. if not getting the required status 200 or 201 etc. then API should execute 5 times.\r",
							"//If status code is not equal to 200 status and if the value of start is less than the end value then set collection variables as (loc_start+1) and execute the request. This loop will be executed till the start value incremented at 4. Once it is become 5 our nested if condition is failed and move to else part where we are setting request as null means stopping the execution and setting start value as 0. Our iteration execution end there.\r",
							"for(i=loc_start;i<loc_end;i++)\r",
							"{\r",
							" if(st_code != 201)\r",
							"    {\r",
							"        if(loc_start<eval(loc_end-1))\r",
							"        {\r",
							"            pm.collectionVariables.set(\"coll_start\",eval(loc_start+1));\r",
							"            postman.setNextRequest(\"PUT\");\r",
							"        }\r",
							"        else\r",
							"        {\r",
							"            postman.setNextRequest(null);\r",
							"            pm.collectionVariables.set(\"coll_start\",0);\r",
							"\r",
							"            pm.test(\"Status code is 201\", function(){\r",
							"                pm.response.to.have.status(201);\r",
							"            });\r",
							"        }\r",
							"    }\r",
							"    //in case if condition not fullfilled then execution will finish here.\r",
							"    else\r",
							"    {\r",
							"        //setp 2 declare expected results\r",
							"//Step 2.1 Declare the expected date\r",
							"//var actualDate= new Date().toISOString().slice(0,11);\r",
							"var actualDate= new Date().toJSON().slice(0,10);\r",
							"\r",
							" // step 2.2 Fetch request parameters from request body\r",
							" var requestBody=pm.request.body.raw;\r",
							" requestBody=JSON.parse(requestBody);\r",
							" var req_name=requestBody.name;\r",
							" var req_job=requestBody.job;\r",
							"\r",
							" //step 3 validate response body\r",
							" // step 3.1 extract response body\r",
							" var responseBody=pm.response.json();\r",
							"\r",
							"//step 3.1 extract reponse body for each name\r",
							" var res_name=responseBody.name;\r",
							" var res_job=responseBody.job;\r",
							" var res_date=responseBody.updatedAt;\r",
							" res_date=res_date.slice(0,10);\r",
							" console.log(res_name);\r",
							" console.log(res_job);\r",
							" console.log(res_date);\r",
							" \r",
							" // step 3.3 validate respons body\r",
							" pm.test(\"validate responsebody:name\", function ()\r",
							" {\r",
							" pm.expect(res_name).to.eql(req_name);\r",
							" })\r",
							" pm.test(\"validate responsebody:job\", function ()\r",
							" {\r",
							"  pm.expect(res_job).to.eql(req_job);\r",
							" })\r",
							"\r",
							" pm.test(\"validate responsebody:Created Date :\", function ()\r",
							" {\r",
							" pm.expect(res_date).to.eql(actualDate);\r",
							" })\r",
							"\r",
							"        break;\r",
							"    }\r",
							"}"
						],
						"type": "text/javascript"
					}
				}
			],
			"request": {
				"method": "PUT",
				"header": [],
				"body": {
					"mode": "raw",
					"raw": "{\r\n    \"name\": \"morpheus\",\r\n    \"job\": \"zion resident\"\r\n}",
					"options": {
						"raw": {
							"language": "json"
						}
					}
				},
				"url": {
					"raw": "https://reqres.in/api/users/2",
					"protocol": "https",
					"host": [
						"reqres",
						"in"
					],
					"path": [
						"api",
						"users",
						"2"
					]
				}
			},
			"response": []
		},
		{
			"name": "PATCH",
			"event": [
				{
					"listen": "test",
					"script": {
						"exec": [
							"//Fetch the collection variables into lacal variables\r",
							"var loc_start = pm.collectionVariables.get(\"coll_start\");\r",
							"var loc_end = pm.collectionVariables.get(\"coll_end\");\r",
							"\r",
							"//Fetch the stats code from response\r",
							"var st_code = pm.response.code;\r",
							"for(i=loc_start;i<loc_end;i++)\r",
							"{\r",
							" if(st_code != 201)\r",
							"    {\r",
							"        if(loc_start<eval(loc_end-1))\r",
							"        {\r",
							"            pm.collectionVariables.set(\"coll_start\",eval(loc_start+1));\r",
							"            postman.setNextRequest(\"PATCH\");\r",
							"        }\r",
							"        else\r",
							"        {\r",
							"            postman.setNextRequest(null);\r",
							"            pm.collectionVariables.set(\"coll_start\",0);\r",
							"\r",
							"            pm.test(\"Status code is 200\", function(){\r",
							"                pm.response.to.have.status(200);\r",
							"            });\r",
							"        }\r",
							"    }\r",
							"    //in case if condition not fullfilled then execution will finish here.\r",
							"    else\r",
							"    {\r",
							"        //setp 2 declare expected results\r",
							"//Step 2.1 Declare the expected date\r",
							"//var actualDate= new Date().toISOString().slice(0,11);\r",
							"var actualDate= new Date().toJSON().slice(0,10);\r",
							"\r",
							" // step 2.2 Fetch request parameters from request body\r",
							" var requestBody=pm.request.body.raw;\r",
							" requestBody=JSON.parse(requestBody);\r",
							" var req_name=requestBody.name;\r",
							" var req_job=requestBody.job;\r",
							"\r",
							" //step 3 validate response body\r",
							" // step 3.1 extract response body\r",
							" var responseBody=pm.response.json();\r",
							"\r",
							"//step 3.1 extract reponse body for each name\r",
							" var res_name=responseBody.name;\r",
							" var res_job=responseBody.job;\r",
							" var res_date=responseBody.updatedAt;\r",
							" res_date=res_date.slice(0,10);\r",
							" console.log(res_name);\r",
							" console.log(res_job);\r",
							" console.log(res_date);\r",
							" \r",
							" // step 3.3 validate respons body\r",
							" pm.test(\"validate responsebody:name\", function ()\r",
							" {\r",
							" pm.expect(res_name).to.eql(req_name);\r",
							" })\r",
							" pm.test(\"validate responsebody:job\", function ()\r",
							" {\r",
							"  pm.expect(res_job).to.eql(req_job);\r",
							" })\r",
							"\r",
							" pm.test(\"validate responsebody:Created Date :\", function ()\r",
							" {\r",
							" pm.expect(res_date).to.eql(actualDate);\r",
							" })\r",
							"\r",
							"        break;\r",
							"    }\r",
							"}"
						],
						"type": "text/javascript"
					}
				}
			],
			"request": {
				"method": "PATCH",
				"header": [],
				"body": {
					"mode": "raw",
					"raw": "{\r\n    \"name\": \"morpheus\",\r\n    \"job\": \"zion resident\"\r\n}",
					"options": {
						"raw": {
							"language": "json"
						}
					}
				},
				"url": {
					"raw": "{{A_PATCH}}",
					"host": [
						"{{A_PATCH}}"
					]
				}
			},
			"response": []
		}
	],
	"event": [
		{
			"listen": "prerequest",
			"script": {
				"type": "text/javascript",
				"exec": [
					""
				]
			}
		},
		{
			"listen": "test",
			"script": {
				"type": "text/javascript",
				"exec": [
					""
				]
			}
		}
	],
	"variable": [
		{
			"key": "coll_start",
			"value": "0",
			"type": "string"
		},
		{
			"key": "coll_end",
			"value": "5",
			"type": "string"
		}
	]
}